{
  "type": "service_account",
  "project_id": "reshala-49385",
  "private_key_id": "87fd28ab9be62ccbcc0325fd66ed61b16dff0164",
  "private_key": "-----BEGIN PRIVATE KEY-----\nMIIEvQIBADANBgkqhkiG9w0BAQEFAASCBKcwggSjAgEAAoIBAQCtZ//KS7+DdT7/\n2BYbpz9Fb9d+T/ThEn0HyMDm2variAvsv0qxrfDr3H7vMcq/eeqYvsYwDMdlqcXi\nPCF6JH5Y7GiHb8CTfGYljGNyl1s489tuLf0JcqgXON5uaYqbAl3LUIj0Pl1CpJ3z\ngRSjJ5t82BcbGK/Sv3ralAwX6NU3wdfmNUNrns9OR046dEBhBtpZii/st5waDIA9\nfuQu5Im14ctlOp92x7Fv+YWb0ZFNwMuivDVpXSwh7lpdCJS8XZuatE/aI2FnqRGD\nh4ISvHjM7YSPvJhwKI+2EBknQ3PDZ087582YgYFGojXdnRqD/NDXNaPQFGbHUrHQ\nuBZdCy/FAgMBAAECggEAEd1Zwx3YKmMpHSMGLg2mLVFnJkZ3ADwPIP7r7qymxoey\n0M5pU9JLdIUoF5zt2hmlk1xuHxOl9EGQFy1iNortcFxUrYVUFe22OU6UDUFuHrky\nxVBcFf3XtuK/OalKZAtTnedbYKxPH9dFRYmqFl/1eyBpCvvZW1EqRzwC3fC5DLAS\nS0ZOSpPHw3V9uehrgTgxkVK2O8JiN0TwJ112d33CE7yDn+JCoTzwHJmvH+wGO4bc\nZLLuk11oo7NVT8GdVjnqSnwWUxCJviGhsDREycBU54jpxKmWi1tgtwIvF7fCjOf7\nDs/6bQ1ZRI//a4wCMSk1kcUNVENSzwH1Co3ShlmmAQKBgQDsPGXTBqR5FNrf6bQA\nWROlaflk3HWr0G00Q/6Ex7baZE20bsbpKjlkt9dhXcAfJwM3SNtx7eaROF/KihFS\nakPY3aKh6Iy1uaor+k2fhcBE1AnX3ZnhdsUeUniSzrkLbHLoMRRkJPYj+RDsDK4H\nP7ebJ0hcc7B6wekoBbVu5ZjNxQKBgQC76fEMlbKFMXres9utHq7ETi8g8c53Ueka\ndrIsH45PuREm2AwzXYe8hd1HBFg/lCweD2ElhaT1F3SR4xoZtYkXV7bn9YShPw7W\nc6ADI4uiOlIL3MSqXoEP6TsjbS6crTGU3LzJMqP9AktEd+GT2koELdd0TGmRmQAE\nEm41rID6AQKBgQDFBl6aUOjt/2HI7D5vJ9vF0wvofiI6CRx7QdZN4c90d8GDIf0N\nzGSPxvCASVOJ59y7yC0V6SeqqIzj/KETzoMFpVwVk0F/8vilsx34VPIVtY78FdtY\netlOP9RGBNm6WFnBo+Vw3I7ZU8o0RSMD8rVsVqf4S5i92WpfMduvQRhfTQKBgE4o\nHSP410lirRIXiJTWoCXxxtRS/mbOYL+rAqwra8to0+NuFJUAn8Yff0tcWUAIZtkR\n2Hv8vAFcghVzeZWb1aspxl9v1HwkeA1mBfWIQTl2PE3Gwt2BdPijLv+rF6n+txKN\nRNACCgbff2K44c/XCNX4Ixax+W6fTkxjRgd4+iQBAoGAOmL2pgvMLAJt6h7x2Qsf\neTwZuxrCXBTqF3R0aeAJg/cmDdPX7jaEhcdnuzVKNEFWSbeXanCUYRqL+UWG5E0T\nq6P8kMQQx2k34qQTs67DU0Wu948TnOmvPcQjo6d/svCvoSLI9aWi5UemcSBn+xtV\nwiMxYLqYgZsZt48l2Mjh6w8=\n-----END PRIVATE KEY-----\n",
  "client_email": "firebase-adminsdk-t161i@reshala-49385.iam.gserviceaccount.com",
  "client_id": "113945094747421353575",
  "auth_uri": "https://accounts.google.com/o/oauth2/auth",
  "token_uri": "https://oauth2.googleapis.com/token",
  "auth_provider_x509_cert_url": "https://www.googleapis.com/oauth2/v1/certs",
  "client_x509_cert_url": "https://www.googleapis.com/robot/v1/metadata/x509/firebase-adminsdk-t161i%40reshala-49385.iam.gserviceaccount.com"
}
